{
  "message": {
    "generalPurposeCard": {
      "layout": {
        "cardOrientation": "HORIZONTAL",
        "imageAlignment": "LEFT"
      },
      "content": {
        "media": {
          "mediaUrl": "https://media.giphy.com/media/PQbJgq1XKZyV5ZH3Lg/giphy.gif",
          "mediaContentType": "image/gif",
          "thumbnailUrl": "http://backgroundcheckall.com/wp-content/uploads/2017/12/thumbnail-background-x-10.jpg",
          "thumbnailContentType": "image/png",
          "height": "MEDIUM_HEIGHT"
        },
        "title": "This is a single rich card.",
        "description": "This is the description of the rich card. It's the first field that will be truncated if it exceeds the maximum width or height of a card.",
        "suggestions": [
          {
            "reply": {
              "displayText": "No",
              "postback": {
                "data": "set_by_chatbot_reply_no"
              }
            }
          },
          {
            "action": {
              "urlAction": {
                "openUrl": {
                  "url": "https://www.google.com"
                }
              },
              "displayText": "Open website or deep link",
              "postback": {
                "data": "set_by_chatbot_open_url"
              }
            }
          },
          {
            "action": {
              "mapAction": {
                "showLocation": {
                  "location": {
                    "latitude": 37.4220041,
                    "longitude": -122.0862515,
                    "label": "Googleplex"
                  },
                  "fallbackUrl": "https://www.google.com/maps/@37.4219162,-122.078063,15z"
                },
                "requestLocationPush": {}
              },
              "displayText": "Show location on a map",
              "postback": {
                "data": "set_by_chatbot_show_location"
              }
            }
          }
        ]
      }
    }
  }
}